Python 2.7.13 (v2.7.13:a06454b1afa1, Dec 17 2016, 20:53:40) [MSC v.1500 64 bit (AMD64)] on win32
Type "copyright", "credits" or "license()" for more information.
>>> 
=== RESTART: C:\GitLocal\SummarizationAlgorithm\SummarizationAlgorithm.py ===
Histograma;textura;movimento
81780.77;20363.87;56941590.00; 9162.84;23389.07;19579152.00; 68649.12;8616.23;15898547.00; 14217.96;3086.96;21488121.00
11134.69;25442.80;71736798.00; 4535.10;15478.12;23448670.00; 8992.97;7649.37;27261329.00; 4346.46;2283.39;23866632.00
14204.01;22996.31;71971104.00; 6079.14;11891.24;25171962.00; 9589.68;8089.13;26152329.00; 4278.60;2541.58;22712429.00
33106.19;4842.31;78070912.00; 3886.05;3092.17;27210356.00; 29372.05;12660.93;30538450.00; 7834.05;4731.19;22912256.00
33939.47;96408.31;74571506.00; 13510.63;57671.98;29288505.00; 29665.91;40040.20;29984829.00; 8152.05;3500.48;16420295.00
58167.95;33403.38;94648873.00; 7199.91;1586.46;46679691.00; 11821.59;5611.05;33281118.00; 60014.36;32443.90;16031491.00
187586.48;90512.09;72727961.00; 48880.60;25130.92;10836045.00; 124291.00;31338.14;13078148.00; 74355.17;37724.55;49459482.00
22450.88;16863.85;110918888.00; 7173.62;15931.77;24338897.00; 16686.82;17651.01;32947146.00; 8637.50;6585.39;54719498.00
25432.46;22233.13;75918968.00; 6673.21;3141.82;22782006.00; 21698.37;20712.34;33824270.00; 6449.44;2704.88;19326549.00
40105.84;39416.58;85130049.00; 5309.97;7555.35;26494927.00; 32757.08;29205.67;30147998.00; 9182.76;9961.18;29120033.00
11615.75;23172.91;88901798.00; 3427.54;13136.61;24219329.00; 9150.14;3634.72;27142759.00; 5514.86;2351.86;38951146.00
38446.81;26593.14;96805582.00; 5755.09;8427.41;46895413.00; 11393.64;4347.04;35199870.00; 32363.51;22281.64;15484809.00
136170.40;21397.75;147452237.00; 13977.77;6231.32;33678048.00; 98657.08;13127.10;51483224.00; 42812.92;26794.86;62830569.00
116755.20;9525.57;194591267.00; 23312.88;4861.81;66262974.00; 105720.62;3334.90;64023342.00; 18997.85;5817.88;64716761.00
133089.79;35065.55;193561382.00; 24921.58;9485.18;66758584.00; 117408.62;13551.38;63909986.00; 24484.56;11891.72;63936406.00
140787.11;42136.98;194449091.00; 18951.41;29245.43;65894362.00; 119778.15;20747.93;63828482.00; 26719.21;9093.53;65391161.00
139232.17;21974.94;193061882.00; 22742.02;12810.37;63363955.00; 111058.13;3896.28;64100500.00; 30311.31;6054.40;66154819.00
146990.50;8787.74;182762430.00; 17753.84;7136.14;57905945.00; 118597.00;5911.30;58833917.00; 29425.27;2879.19;66418543.00
175235.30;70369.54;169707773.00; 77327.57;46096.94;56302850.00; 126633.31;14236.31;50415103.00; 50299.06;32258.70;63472838.00
124381.43;63212.01;94519712.00; 14205.42;22949.35;37541711.00; 51585.78;25678.54;36035924.00; 77206.81;15746.49;20435355.00
15661.66;22426.03;56991182.00; 5428.40;7708.28;15523063.00; 12709.07;5424.82;19503555.00; 10236.51;6666.97;21962859.00
64900.28;17108.54;88014927.00; 12175.24;9881.27;32290352.00; 14683.19;2938.73;33431787.00; 71774.00;14528.80;22036069.00
115891.66;25224.49;89118735.00; 13018.36;5357.45;15877008.00; 16410.89;4255.52;21477880.00; 128071.21;24055.92;51973905.00
15601.49;10889.79;83586236.00; 8654.91;7302.81;19004757.00; 9430.31;5542.05;23750536.00; 5968.19;6129.45;40931204.00
18087.83;14433.15;75339523.00; 11954.13;10067.57;20652395.00; 9210.64;5985.99;26564299.00; 9239.58;6073.18;27988284.00
25856.89;20741.33;67906785.00; 8808.66;4238.62;21251938.00; 12439.79;5230.42;24178574.00; 14563.03;14366.61;22560281.00
15108.86;11782.43;74629149.00; 9722.14;3040.63;17429800.00; 8223.96;13405.25;24046502.00; 9795.73;6111.03;32994126.00
14515.35;13365.43;64165923.00; 3707.26;4042.31;15715726.00; 7346.31;4207.47;22709905.00; 8489.60;9497.54;25506134.00
16698.33;6953.47;65037399.00; 6964.66;5143.50;20380681.00; 11994.76;3895.39;21699955.00; 8788.78;4919.50;22421934.00
52681.56;12565.32;62462731.00; 8707.31;19740.01;24599501.00; 9919.39;4268.52;23832588.00; 49629.64;25280.67;14323852.00
895461.28;229707.28;174103212.00; 279381.80;74525.06;59313850.00; 327250.38;86826.39;55235599.00; 303330.45;88430.63;59788783.00
2259.10;1653.45;7714921.00; 9215.93;8254.05;4555406.00; 14003.67;12488.02;783398.00; 4649.49;2577.88;2496055.00
2553.22;2616.15;6761776.00; 2451.19;2089.31;2198962.00; 434.40;1823.44;3218826.00; 307.73;158.04;1555672.00
1728.01;1313.42;7385447.00; 3457.26;3122.10;2506436.00; 2324.89;1990.82;3096692.00; 7201.96;6327.25;1874373.00
4004.26;4001.19;9477597.00; 1932.27;1157.39;3109501.00; 4450.48;3889.14;3115202.00; 8255.94;6783.55;3461641.00
4595.50;3840.81;7171026.00; 2085.97;1793.97;1445850.00; 8240.32;7671.46;3665229.00; 10602.96;10009.92;2234723.00
2459.99;1890.72;7761725.00; 1221.09;1321.67;2165098.00; 4055.95;4094.56;2068235.00; 7218.10;6795.79;3704634.00
9235.62;6612.58;7870332.00; 7474.72;5445.85;2949733.00; 5698.49;5146.23;2847061.00; 3628.45;3062.85;2182070.00
991349.47;48944.04;12552596.00; 355193.42;15358.19;4658973.00; 346978.39;25743.06;5087657.00; 378814.74;19503.90;2941960.00
625907.59;63298.46;21997714.00; 257374.35;26587.71;7163656.00; 247341.34;16110.24;8518125.00; 313999.39;24049.95;6254496.00
409158.25;186871.53;32066893.00; 116141.59;75070.62;10430347.00; 181817.34;33653.06;10461226.00; 222855.67;85606.60;10741399.00
253400.44;57397.85;77908480.00; 73316.23;14457.29;22181961.00; 119862.94;15461.63;27804246.00; 121693.40;35520.04;27306809.00
29729.92;62886.09;86302772.00; 18102.76;44376.36;21918426.00; 16315.27;7307.15;25049490.00; 16777.67;26250.03;39568613.00
22281.43;14595.53;75249936.00; 5427.45;9115.60;16963027.00; 8771.54;10585.63;27538882.00; 19227.64;8956.50;31543605.00
72435.26;40356.91;87903415.00; 19318.89;4726.65;24567621.00; 34652.04;6212.11;27621765.00; 36834.94;32571.21;36263303.00
107163.17;31207.33;93487646.00; 12391.88;2283.31;15423008.00; 26721.70;5463.01;22520930.00; 96337.62;39692.61;56300459.00
27047.13;7251.23;93190626.00; 6627.49;7131.32;22119051.00; 25555.62;6029.67;26534751.00; 10728.26;8253.23;45662274.00
30217.10;34887.22;64359503.00; 10984.59;2997.64;20502819.00; 27454.45;20303.69;28418008.00; 12249.48;16628.70;15659918.00
18668.19;18912.56;77932039.00; 7319.56;5624.96;28560983.00; 9165.14;8678.66;32708662.00; 11698.15;7447.07;17468342.00
91030.00;36091.18;103299208.00; 12525.07;12736.83;48383663.00; 15304.83;12169.52;33355428.00; 77718.69;30750.41;21761182.00
73186.73;44970.98;131224727.00; 19755.88;9538.39;61277452.00; 18778.85;22087.95;42526753.00; 87603.62;43661.75;27243414.00
90377.72;21468.11;75330855.00; 14722.00;7798.10;15927870.00; 28471.70;17528.19;24392397.00; 82393.43;25464.56;35409148.00
87338.33;33530.90;95854744.00; 13152.93;17767.59;13365013.00; 38566.26;9355.60;25712708.00; 103209.56;46721.39;57459910.00
14270.76;19201.61;63277743.00; 9732.58;10008.84;17043290.00; 7494.22;3452.61;20403448.00; 7160.48;8063.71;26663984.00
84063.01;28790.96;115121206.00; 11987.12;7299.18;52100744.00; 62365.98;11225.16;39848343.00; 111165.06;43898.26;23579911.00
61698.95;39687.38;124033483.00; 13225.31;16092.09;54957448.00; 28559.77;8115.11;40507531.00; 39180.95;27847.69;29202038.00
53835.12;18972.47;66663596.00; 5890.23;1371.15;16776470.00; 8865.41;2667.68;23211429.00; 46707.89;15939.45;27088480.00
88281.23;36155.14;65600245.00; 11937.49;2995.36;13014876.00; 26896.66;10296.16;20608510.00; 74821.00;42671.37;32305608.00
15409.96;14554.29;77636658.00; 4953.79;1561.07;18693184.00; 11924.97;3745.49;23370356.00; 12269.10;10019.34;36288012.00
52842.65;16258.60;88538260.00; 14206.20;5009.44;18330535.00; 13400.92;3396.02;24494011.00; 58085.81;20771.47;46534720.00
56138.67;41834.89;97170256.00; 8012.82;3798.96;13604426.00; 20162.91;19944.11;23487827.00; 51141.72;26058.51;60687595.00
13971.67;12873.48;61557911.00; 4576.42;7451.22;20108782.00; 11891.74;6187.67;25861966.00; 5633.94;7446.29;16043216.00
194373.84;72847.61;127581193.00; 18465.07;6443.88;60394630.00; 33026.73;25226.08;42880267.00; 219729.89;105361.91;24396431.00
167622.96;62151.12;88343554.00; 11617.17;4887.17;18738277.00; 12597.85;15262.03;24890868.00; 172526.06;76118.63;45242279.00
76661.40;23515.01;106768754.00; 10269.89;10103.24;16960273.00; 20927.12;7843.83;30466195.00; 61266.26;30922.44;60181471.00
95224.04;27181.54;141651585.00; 38345.00;6787.66;64993324.00; 85813.64;16645.87;58718696.00; 15939.26;11076.89;17875913.00
92777.70;31278.65;170741937.00; 55807.31;17603.03;66434643.00; 85439.15;15785.21;56476406.00; 13961.01;2046.65;48635543.00
115992.90;55106.36;172378780.00; 63959.17;12989.01;67535165.00; 106621.30;29403.35;60535956.00; 22257.16;16193.34;45069793.00
173511.12;44743.71;169898511.00; 79442.23;13087.94;72486009.00; 129598.93;9748.78;70560499.00; 54937.69;22407.16;26635848.00
193666.31;11207.02;206353294.00; 101176.63;8555.70;73382438.00; 142447.60;5348.18;71894579.00; 53911.14;16429.74;61323861.00
174990.56;15752.28;179964314.00; 80635.14;7670.55;69682136.00; 143310.44;9933.64;68246533.00; 25980.50;3161.86;42972277.00
21856.88;19417.00;55026446.00; 10361.54;1263.22;14319855.00; 11045.64;15591.55;19077667.00; 8938.43;5115.77;22175281.00
17140.63;33906.62;58766415.00; 10797.50;18932.78;16156429.00; 11599.11;16871.55;20512308.00; 7631.46;4625.70;22891321.00
21932.60;15599.92;72747180.00; 10096.13;7972.73;24212848.00; 15138.72;4739.13;26985020.00; 9554.76;4593.33;22150930.00
14852.39;21939.76;66665037.00; 7243.73;5851.49;15117046.00; 9783.53;7587.18;29828133.00; 6256.21;10902.61;22492094.00
204599.81;117727.50;61479091.00; 97388.44;66025.27;15927282.00; 107187.45;55299.72;24809899.00; 86710.01;28926.88;20475724.00
178190.73;35009.45;68440934.00; 65968.79;13902.56;21576568.00; 74301.44;9124.98;25773275.00; 93699.09;22821.22;21027039.00
175592.72;135879.00;63656227.00; 35429.14;41427.89;13048772.00; 91786.24;70798.68;16174019.00; 87044.07;30999.66;34647508.00
61039.66;30380.54;96085193.00; 22466.96;4241.06;12888647.00; 15635.62;10569.37;24212089.00; 58464.46;35637.06;59421015.00
14919.82;23953.53;75968846.00; 6048.33;6700.98;21305454.00; 10050.17;12291.09;28401688.00; 7848.59;3588.56;27261142.00
23001.26;4319.76;88165768.00; 15668.68;1431.05;33644263.00; 17464.72;13001.31;25677353.00; 7745.48;7726.35;30318864.00
15729.48;2812.21;60329446.00; 8743.22;4899.61;15689791.00; 10478.25;3165.91;20146776.00; 6190.35;2247.31;25134415.00
24907.11;25420.06;74409136.00; 9467.50;21552.80;32685926.00; 23965.18;2535.23;28413755.00; 15555.99;8992.49;14224178.00
35286.10;15759.17;114293701.00; 6524.07;5176.96;25332947.00; 34781.57;3714.32;28979061.00; 10588.27;8437.66;60720552.00
15483.01;28782.23;67608297.00; 8944.20;15106.33;22431531.00; 7940.36;7518.86;20819248.00; 7527.98;4548.52;24569097.00
28068.53;46772.42;85995369.00; 8322.51;15085.20;25795338.00; 16595.66;22162.55;26004757.00; 12836.48;9345.14;35980240.00
10178.87;4389.13;76225462.00; 6714.94;6307.39;26478836.00; 6471.10;2959.49;28101100.00; 4993.33;2194.88;22522187.00
41084.76;30444.24;64106815.00; 5799.70;4465.31;27349866.00; 17842.71;10898.48;24300176.00; 39114.40;26122.50;12822639.00
67057.63;31452.80;112659257.00; 12193.39;11080.78;57739643.00; 35646.64;5711.83;36400508.00; 74781.37;36791.75;19106120.00
60813.74;35207.03;86421239.00; 30711.22;11404.52;34187960.00; 35694.36;12634.00;28136514.00; 30553.32;14240.46;24592628.00
123007.69;56691.49;76798044.00; 42565.37;11494.61;26153356.00; 66921.77;49210.80;26925393.00; 43647.78;5685.74;23383485.00
136562.05;53609.58;114110500.00; 51548.38;20680.12;39886827.00; 61825.25;21829.53;42531850.00; 47782.93;18246.18;32291897.00
fim do video!
>>> 
