Python 2.7.13 (v2.7.13:a06454b1afa1, Dec 17 2016, 20:53:40) [MSC v.1500 64 bit (AMD64)] on win32
Type "copyright", "credits" or "license()" for more information.
>>> 
=== RESTART: C:\GitLocal\SummarizationAlgorithm\SummarizationAlgorithm.py ===
Histograma;textura;movimento
476110.32;316428.91;84533197.00; 135956.13;83741.94;25981019.00; 214710.23;155738.19;36609600.00; 127576.41;92825.48;21942060.00
121853.24;147036.21;96479056.00; 41385.61;45653.29;30684269.00; 52336.07;73824.83;39839376.00; 36845.53;34476.70;26261316.00
6008.38;19334.61;86189765.00; 2161.45;1748.63;26803522.00; 4997.11;10799.42;40119731.00; 2272.47;2915.93;19564063.00
8218.72;4497.64;88228796.00; 3591.05;2621.72;26058683.00; 5840.16;6871.53;40555649.00; 4885.63;7293.28;21887687.00
600837.94;468435.73;71837123.00; 192783.91;143286.90;15696882.00; 230385.07;208654.29;39730660.00; 176715.22;133299.39;16861395.00
623468.06;163896.91;119703096.00; 201992.97;57180.26;35410475.00; 239281.60;65642.72;51011273.00; 182833.67;54647.80;33157011.00
109242.94;220871.48;95738132.00; 34709.46;37652.26;22178909.00; 61636.90;110613.77;42678635.00; 51898.65;80696.83;31005853.00
158991.63;83211.73;92324115.00; 93243.44;16028.03;33359341.00; 85721.20;73269.22;35580639.00; 16541.51;23957.02;23548070.00
29356.10;11507.18;80359821.00; 20121.07;8266.94;21985493.00; 36681.64;20362.81;32320187.00; 9032.31;4671.65;26331108.00
148925.68;37073.23;89676143.00; 51441.67;13708.21;23753922.00; 101547.01;17858.43;38981320.00; 19937.76;18502.29;26965418.00
96922.88;78484.81;96807351.00; 30777.24;28148.57;30124102.00; 61819.48;68213.28;41154822.00; 32116.19;14411.54;25628725.00
13041.68;4039.11;80845195.00; 5712.77;3068.21;23548282.00; 9478.98;3261.68;38286769.00; 3432.93;3450.37;19680322.00
338564.88;189952.39;88008181.00; 125315.05;85688.68;25831748.00; 191006.16;118495.20;42323075.00; 35357.16;12919.66;19881993.00
17195.84;10211.95;62330498.00; 13334.02;924.85;7652352.00; 20907.39;3825.78;25480021.00; 21319.42;9784.68;29296496.00
342342.22;41076.38;85393526.00; 136398.91;64344.89;24195345.00; 203774.00;26330.88;42247766.00; 26898.22;51927.07;19097370.00
29634.28;15933.46;103252993.00; 8827.98;10338.62;25744097.00; 18583.55;5404.13;50995255.00; 12826.17;5018.34;26860376.00
403459.18;174338.73;106643752.00; 121802.10;60915.69;32734837.00; 179671.89;63709.34;48715030.00; 106526.80;58740.06;25425205.00
142178.34;29186.44;15403632.00; 42105.37;4746.18;2972557.00; 64873.96;18874.08;8230548.00; 48021.43;5959.83;4131433.00
34616.26;10809.85;41698491.00; 9298.13;3236.85;7616529.00; 22852.49;13019.16;23291281.00; 9778.46;1763.56;10867566.00
66325.45;13443.48;61149561.00; 17409.26;4880.23;16241978.00; 33830.25;5736.16;29576881.00; 16074.10;2798.19;15388157.00
335442.43;298553.65;101774724.00; 118242.90;35506.65;38383150.00; 155504.41;132358.42;48059326.00; 78858.95;132966.48;15362495.00
159600.94;94164.22;84248007.00; 76074.34;61310.25;22238525.00; 85091.93;59723.85;41224609.00; 15372.71;23843.05;21112537.00
94313.91;82448.30;95103167.00; 40466.92;25152.93;28177379.00; 51923.14;70932.16;42413688.00; 14162.72;7589.71;24638028.00
146712.40;24868.06;95237393.00; 79091.31;30487.65;29956012.00; 67365.43;49249.34;43321359.00; 17138.61;5916.26;22174749.00
144550.10;73879.42;78842624.00; 98374.28;22631.94;14998548.00; 49477.96;46776.78;39694533.00; 14447.75;8061.04;24657379.00
276821.21;256575.89;99006629.00; 115056.88;57431.96;33585122.00; 137637.43;164503.14;43781547.00; 38589.56;37192.94;21470846.00
41212.00;42367.02;70397335.00; 20151.39;2849.60;14605846.00; 18049.09;19926.46;28845937.00; 22339.14;21676.04;27143379.00
255502.42;175711.09;93600504.00; 97890.31;80587.58;27092555.00; 141940.14;95870.96;43618390.00; 26325.56;8692.48;22869878.00
19134.39;11904.29;92908858.00; 15607.25;8443.30;23237095.00; 13711.43;16276.44;43665035.00; 10920.89;8831.67;26266001.00
46335.00;31173.30;83157131.00; 27259.34;12703.26;25690747.00; 24196.76;28862.87;34403440.00; 16352.92;18072.99;23198624.00
8188.82;13036.80;72581653.00; 4281.15;4272.00;19703241.00; 5079.50;2326.18;33037540.00; 3800.96;6435.75;20014225.00
191658.50;289157.91;90327329.00; 56542.69;78307.48;25069535.00; 83489.31;117834.68;40186251.00; 56446.21;97928.94;25322048.00
90582.03;27956.16;83223760.00; 30796.89;4750.40;22106516.00; 45717.00;10836.14;38645611.00; 17298.65;14048.77;22768946.00
441308.00;118066.57;142131706.00; 127210.78;17812.68;43693642.00; 204218.91;56284.99;62953060.00; 112522.77;48893.33;35516758.00
331305.18;30163.05;8598326.00; 90186.60;11664.61;1252697.00; 151096.34;7798.19;5533543.00; 94561.11;12223.25;1786787.00
73699.91;32904.14;34140250.00; 22456.16;1798.44;12458585.00; 36077.96;30383.88;15466300.00; 26370.43;4118.49;6260999.00
70101.14;18272.37;33091785.00; 24453.33;17142.82;11643224.00; 29402.51;4900.49;14930818.00; 19964.75;5481.32;6530338.00
99729.54;5632.75;81612996.00; 19912.85;5911.90;22362038.00; 48118.74;7795.95;37041870.00; 35357.14;1755.89;22243438.00
143113.82;52989.17;107949890.00; 42838.58;13484.02;28933283.00; 69236.41;29147.42;49697405.00; 35937.97;12796.93;29417168.00
354241.41;24211.80;70041439.00; 120389.67;2319.55;25160451.00; 162006.43;13737.56;30764443.00; 83156.40;14698.13;14297174.00
261677.84;25057.29;88849391.00; 93947.19;15779.12;21048947.00; 122851.33;10204.14;41840343.00; 58612.75;3285.02;25664561.00
270670.26;162297.07;56090758.00; 87691.22;65205.61;15375134.00; 119513.61;110515.60;29530173.00; 87624.05;4882.23;11291159.00
410783.98;142626.70;100382533.00; 113459.14;85032.49;28319953.00; 219511.27;130793.34;44949168.00; 101288.26;64164.12;27014148.00
413908.18;245139.57;73213758.00; 132876.19;63829.07;17864311.00; 228175.53;131811.28;30920950.00; 63040.19;56893.00;24673724.00
144100.63;24918.04;92143841.00; 78112.61;11124.98;25320815.00; 71919.39;45590.62;43689926.00; 17954.44;26249.41;23528960.00
184608.57;31354.66;74756117.00; 98954.78;17497.61;14344436.00; 91183.94;42126.19;33144840.00; 21214.69;33229.51;27623498.00
149280.90;51423.03;74522238.00; 64394.85;34842.91;19485184.00; 86231.85;34059.50;35322347.00; 11052.71;31886.87;19942476.00
67418.50;67134.87;81531766.00; 28820.96;27487.96;21802564.00; 38714.21;33744.17;39276351.00; 21667.81;41540.93;20705879.00
72122.34;46533.94;85040512.00; 19245.16;41135.43;25341212.00; 52051.61;38868.83;39682201.00; 24232.90;35824.78;20155724.00
50411.15;28888.80;77770659.00; 27161.07;32551.66;19723150.00; 41016.20;24990.22;31621360.00; 26503.46;34676.67;26598214.00
220258.14;201960.04;112267661.00; 76294.81;90929.71;36100705.00; 101881.32;82032.14;49129214.00; 66942.10;40043.19;27259218.00
131512.45;49957.47;43344719.00; 48440.86;3345.55;10540684.00; 55342.45;15000.02;23540202.00; 40122.83;32927.65;9460907.00
63283.54;8311.29;50513177.00; 24975.38;22430.02;12368604.00; 29830.25;19891.41;19674739.00; 23577.84;35669.29;18413423.00
220289.79;19693.44;113682073.00; 70188.65;7000.85;32302299.00; 104486.47;21268.55;50441315.00; 58741.36;38109.05;30751378.00
131882.58;151997.75;94290562.00; 50118.24;56663.18;33407528.00; 67322.31;88323.79;35215360.00; 30997.50;17041.60;25870007.00
23733.93;14187.91;83152122.00; 10561.21;13404.47;23856454.00; 17137.79;17969.92;35607455.00; 9907.87;6748.83;24004285.00
77232.08;31184.95;89682163.00; 27038.73;27132.38;26552165.00; 33865.28;26142.02;37542878.00; 32882.59;19153.95;25843581.00
67765.22;82360.74;69577934.00; 27729.29;32290.20;17212526.00; 33852.15;32733.78;29402948.00; 31845.65;17987.46;23253985.00
175011.38;130644.21;140873608.00; 41790.08;25189.21;39037743.00; 96706.38;74168.30;63350124.00; 62845.06;40304.63;38353961.00
131295.75;29671.09;98952087.00; 60280.75;34250.43;41662423.00; 51368.26;4554.05;38997105.00; 47169.06;5414.09;18667056.00
174964.21;10173.08;108426020.00; 37212.46;9269.18;24825749.00; 86065.03;20976.29;49245234.00; 88104.71;1293.92;34433606.00
267485.79;260369.25;69048835.00; 74897.04;37578.90;21482685.00; 134220.26;125490.02;31547949.00; 85933.73;104929.50;15954780.00
88968.91;46600.59;88746501.00; 40709.19;33823.19;21799918.00; 43809.19;21068.08;40766899.00; 15456.48;8397.73;26299820.00
109776.22;233404.82;91383290.00; 38956.00;68111.46;19502077.00; 59588.11;91235.78;43578624.00; 36208.04;85264.63;28451861.00
69787.48;16941.37;72005423.00; 41841.10;4074.50;17767268.00; 39613.44;3719.40;36094618.00; 24499.31;14273.04;18375211.00
82791.66;12082.30;19573884.00; 44838.75;10111.10;3530137.00; 44179.97;9039.30;12156283.00; 26984.40;8899.70;3900107.00
72263.34;86695.29;92012625.00; 43633.81;9662.39;34872752.00; 38060.33;63912.86;33383131.00; 33133.51;18466.98;23926436.00
136083.91;143939.78;99517710.00; 51766.58;79499.54;26411979.00; 63578.31;34957.46;47862941.00; 46161.07;33353.94;25118824.00
29100.77;19707.46;86481816.00; 13401.12;5214.03;21837007.00; 19658.68;15581.34;42647476.00; 8251.52;7497.82;22374145.00
121993.00;111860.50;81588382.00; 38915.85;43896.57;24476098.00; 63647.77;69245.74;34816518.00; 36796.21;15695.82;22566648.00
64065.86;64423.77;91261928.00; 35742.89;30816.72;26543391.00; 26184.79;20739.30;42099928.00; 17197.56;17243.41;22898144.00
147654.72;192299.25;87098991.00; 67071.51;82860.13;21642697.00; 68646.00;109891.07;33532499.00; 39844.36;13032.97;31975755.00
57771.80;110783.21;96242061.00; 13751.65;30170.76;28757731.00; 34548.34;56744.77;40451139.00; 31100.63;26766.62;27267306.00
19056.84;14187.03;75207020.00; 7037.24;8511.72;23603115.00; 18660.90;8508.57;32821577.00; 22804.26;16561.57;18853097.00
102217.36;213781.04;85646047.00; 34509.26;83172.94;25482563.00; 51223.01;91766.20;38396041.00; 42310.29;41255.16;22117811.00
39527.82;35034.88;75581326.00; 13358.72;9204.32;22938519.00; 22640.90;20781.75;33485203.00; 17675.93;10107.37;19424408.00
160434.74;90023.88;95675497.00; 63103.05;10062.50;33043353.00; 88165.06;31886.00;41222655.00; 43682.99;55048.26;21351173.00
16319.16;8445.14;65226788.00; 13829.16;4166.61;16167827.00; 11796.57;3919.92;29023987.00; 4534.86;3146.33;20310874.00
132607.37;170388.14;79073170.00; 68591.71;56707.74;20653309.00; 80805.68;108924.16;34432001.00; 15846.79;12106.89;23983701.00
45917.89;25285.04;90763390.00; 33687.04;12186.39;28156749.00; 28321.02;24686.90;35092739.00; 12219.47;4482.64;27819553.00
72701.23;78403.80;90426523.00; 31486.34;23291.75;25711326.00; 37593.37;34917.76;41775933.00; 19021.16;29467.50;22969966.00
142824.85;98382.66;72439422.00; 68787.56;49616.61;16227959.00; 78481.91;58898.94;30281694.00; 19785.77;17581.43;25925714.00
174314.27;58042.25;89120249.00; 62690.64;38284.70;23705825.00; 95633.54;13765.57;41163947.00; 51350.61;85120.97;24335094.00
84836.09;35972.74;67554911.00; 22044.14;5516.05;29011880.00; 49186.98;23087.69;27638492.00; 30503.64;14344.92;11183179.00
125955.61;108529.73;74040499.00; 32022.33;37021.09;29035798.00; 59435.30;37228.07;31473864.00; 60115.25;48863.68;13461474.00
124900.93;105753.12;106479966.00; 59699.28;74085.72;35978075.00; 74649.38;63393.03;46832689.00; 25219.94;23736.51;23669673.00
40674.81;43918.32;81996916.00; 13340.66;5803.90;18309580.00; 28661.10;20737.47;38937662.00; 19057.98;16786.17;24817109.00
110915.37;121891.36;79527510.00; 60577.20;57482.08;23476976.00; 52341.44;50334.19;33995792.00; 17372.40;17523.04;22138558.00
121006.38;62656.71;85360286.00; 59985.99;14671.66;21834635.00; 52554.24;23948.99;37530753.00; 32027.98;37943.81;26070316.00
183638.05;86561.97;106580402.00; 39525.42;16599.06;23164753.00; 86295.11;28662.85;49620000.00; 76066.47;65069.07;33976818.00
23094.12;18797.81;86255450.00; 25994.99;7360.07;33006972.00; 28048.85;23652.53;34530106.00; 22037.14;3730.11;18968958.00
162860.10;169558.11;68795151.00; 30758.28;59562.56;23381234.00; 67192.22;46012.98;32180577.00; 81440.35;80013.04;13358918.00
21865.29;45457.91;91521408.00; 13880.44;23273.53;23602622.00; 15098.73;18668.13;42004894.00; 15397.52;10183.59;26143864.00
100853.61;153628.34;70616040.00; 37615.55;70120.91;22121908.00; 46765.94;94150.67;31967372.00; 26765.35;10294.35;16634766.00
27659.62;37895.33;90588076.00; 14585.08;7224.56;28778109.00; 15841.22;22220.87;37230198.00; 10210.97;7594.40;24929983.00
156162.96;141719.49;111731067.00; 54209.67;26431.15;34452489.00; 74919.06;54569.40;49534207.00; 44029.07;64460.03;28019467.00
105184.88;36101.32;60276290.00; 46246.25;5346.79;22721963.00; 47828.05;9292.71;27094212.00; 41875.23;24844.42;10467616.00
358391.81;161438.75;154373535.00; 117881.06;23569.60;41685922.00; 171206.34;76815.81;70131689.00; 98944.57;67472.42;42595280.00
229918.88;128960.37;57604789.00; 95554.64;37512.65;14910666.00; 125919.93;72436.71;26473278.00; 35490.12;22172.75;16274548.00
178711.05;23110.84;32895144.00; 51739.09;13677.25;13417158.00; 89602.03;16298.40;14780529.00; 77649.09;7121.46;4624916.00
168555.61;78774.82;29037642.00; 60929.71;15865.82;9185016.00; 87451.51;32306.09;11232572.00; 52742.90;34148.30;8496651.00
695264.10;217073.49;152355546.00; 199050.83;59723.70;44137857.00; 312979.94;101460.72;67909146.00; 185467.13;74491.83;40472611.00
697529.60;219605.54;41492630.00; 202096.62;52110.11;12796450.00; 312627.32;110049.89;19545135.00; 186170.85;73830.52;9290683.00
171877.98;112999.98;119911256.00; 54186.98;23367.56;33530287.00; 84875.74;59778.97;53114464.00; 50253.06;33315.77;33540856.00
204556.41;70570.68;119173729.00; 55459.35;21432.12;37981810.00; 89152.60;61221.04;42228340.00; 82244.97;5735.17;39151158.00
294300.53;72778.28;129923893.00; 62807.47;13763.22;35148093.00; 145039.70;52756.62;55873198.00; 121394.88;15913.79;38922150.00
366727.60;27154.21;48356943.00; 82256.59;7684.03;20843623.00; 181891.80;27553.93;19960875.00; 125725.26;5935.96;7646034.00
181788.78;25518.07;45161843.00; 87930.64;4066.81;15847073.00; 83009.59;26095.51;18085328.00; 58696.26;2156.30;11262351.00
133307.82;28366.84;97759336.00; 30531.52;8314.86;23845803.00; 80805.26;6178.98;44511541.00; 81498.22;17906.08;29454445.00
247319.38;26422.55;22066332.00; 70466.69;16463.31;4550003.00; 135271.00;8498.06;8597916.00; 91766.37;2937.46;8938948.00
154993.24;89879.03;47433346.00; 49406.33;18403.83;17632881.00; 92442.57;51994.28;19696034.00; 61469.39;25519.54;10197345.00
101840.88;66823.41;105566787.00; 34181.79;9854.88;25339320.00; 59155.02;46951.39;46038621.00; 34856.63;15029.93;34412802.00
155233.39;243023.77;30104127.00; 41875.26;71459.95;9373466.00; 87239.07;133035.60;10464166.00; 47327.17;47874.50;10165854.00
82644.34;138670.81;87732656.00; 25389.18;42609.43;24762827.00; 45282.86;79573.40;39957291.00; 24516.45;21543.48;22786788.00
431950.79;210088.66;133564023.00; 123912.99;67609.16;37788187.00; 206847.31;95302.52;59980431.00; 106820.52;59534.36;35972791.00
481759.67;160327.65;15045863.00; 147444.27;23695.84;3856789.00; 234046.17;80992.70;7183007.00; 112501.05;61374.78;4029737.00
56857.48;79621.45;85026873.00; 60314.36;25527.89;25839374.00; 38972.09;27113.17;34795769.00; 22822.08;31017.51;24628665.00
214164.63;56904.45;87731919.00; 100146.61;33842.11;15008584.00; 89807.04;33799.78;41360608.00; 51473.72;10833.15;31384085.00
116500.86;92200.98;47476355.00; 40992.97;6159.55;12513148.00; 59592.46;32448.29;21906886.00; 47758.80;62116.70;13119664.00
130314.40;122413.31;49761964.00; 49394.12;4734.18;8031609.00; 66752.69;57934.27;22967127.00; 35199.54;62128.05;18774726.00
90402.88;17042.25;123524466.00; 26121.28;9904.51;33427488.00; 51713.27;21882.51;56063170.00; 29735.05;19654.39;34243857.00
83672.23;140968.58;105923132.00; 32070.80;38324.69;22933921.00; 48247.27;64775.03;52983769.00; 33235.71;40011.77;29923009.00
142711.08;125405.67;102235549.00; 43003.50;34091.33;40613246.00; 67358.90;47842.25;42913766.00; 46855.06;46042.04;18775073.00
199845.24;43101.42;109792005.00; 62888.05;17835.83;32452352.00; 98619.26;39488.16;49512580.00; 52768.77;30338.62;27822086.00
80606.48;35572.39;92044834.00; 36828.02;3107.40;28312049.00; 49397.88;4282.12;42313404.00; 18432.52;37799.40;21739705.00
184880.41;49317.84;38720991.00; 51609.09;20815.10;6448203.00; 95402.52;30253.94;18956148.00; 56117.63;5351.07;13303501.00
60791.12;31152.42;71677553.00; 29922.89;6596.53;25812811.00; 46415.24;3594.91;36962210.00; 27944.27;22250.32;8850499.00
178067.13;18113.09;118123763.00; 49047.41;16523.82;36074972.00; 94275.60;8582.01;50950637.00; 61924.12;27116.56;31263715.00
66159.12;30841.88;53693262.00; 28287.00;3093.70;21192116.00; 46936.12;16466.31;24181891.00; 30012.12;15357.95;8421096.00
126348.00;94222.36;60986949.00; 38928.04;5758.86;19236478.00; 58848.12;47537.68;25207656.00; 44219.10;49330.18;16613601.00
268126.86;192276.52;142444430.00; 91932.92;39080.23;44709627.00; 123644.04;89018.65;61340064.00; 61780.38;73333.83;36569750.00
276532.60;147919.49;48785735.00; 88213.81;51527.22;12905398.00; 123161.88;86824.56;23060864.00; 78927.60;19182.97;13017909.00
73015.23;17326.63;86262419.00; 21119.80;12067.34;23405612.00; 37822.37;10765.11;37012903.00; 37245.31;8508.67;25824517.00
81019.01;10507.72;62698924.00; 17943.69;6781.24;27399134.00; 37317.24;7143.60;25635185.00; 36981.51;4605.58;9877324.00
321370.49;213451.21;132723483.00; 87087.18;67561.87;35060216.00; 157187.87;131775.00;57609990.00; 97928.88;25180.16;40265740.00
317525.84;116523.87;19240706.00; 92252.95;5811.27;3478744.00; 152808.69;76269.37;9175733.00; 88644.86;48242.80;6569066.00
68549.74;41406.93;98865091.00; 45456.78;31247.43;31152488.00; 32330.87;36457.06;39174587.00; 19908.03;22810.17;28527725.00
266568.89;143161.20;148799928.00; 80503.91;29524.48;45729181.00; 130756.05;99144.41;61721158.00; 81005.31;24246.41;41487703.00
276426.60;261668.22;24769588.00; 71334.68;55549.44;5020589.00; 135919.18;128988.06;10797260.00; 81371.18;87272.07;8999992.00
26293.09;12196.09;90153693.00; 16589.49;12695.35;22123581.00; 14330.64;9816.44;38620609.00; 23573.87;10399.67;29711410.00
189953.89;151892.01;124645558.00; 37673.36;14810.56;30222538.00; 104724.65;102937.63;64222267.00; 61896.32;59847.39;30041552.00
186825.19;80245.30;82734386.00; 39723.56;24844.21;20471962.00; 96101.12;65466.63;36866216.00; 69788.62;31995.32;25751715.00
187094.20;151334.79;96089877.00; 57084.70;48038.12;31664840.00; 93729.61;63849.55;41790727.00; 61228.27;44026.79;22701153.00
79894.87;41488.30;77488894.00; 49121.22;3954.78;22663822.00; 39140.27;15807.22;34449842.00; 27269.95;25560.41;20343369.00
101472.57;10832.33;84247082.00; 25974.93;32993.42;21002781.00; 62703.46;16156.59;42048778.00; 60404.26;15149.15;21322650.00
76654.52;32098.34;123520904.00; 47204.19;23321.57;39066179.00; 70182.11;17786.79;60128161.00; 30928.81;5416.96;24333728.00
45788.36;13552.72;38099681.00; 37807.54;9414.16;10109785.00; 41279.58;12611.24;16686414.00; 24658.31;5584.47;11355300.00
41220.74;11983.89;53175468.00; 21696.34;3130.83;18177700.00; 26919.88;18811.82;20905828.00; 27481.84;8004.02;14053794.00
68155.85;44960.02;58872337.00; 20399.70;6297.15;19639209.00; 49275.79;26584.57;25024143.00; 35844.91;29754.14;14335715.00
77430.98;43792.85;110570888.00; 38578.53;18364.91;35011791.00; 47954.77;10948.08;49770228.00; 20453.94;24007.14;26018647.00
145409.78;82112.00;43871082.00; 61800.91;27061.43;8215198.00; 69118.81;38899.39;18525415.00; 45415.46;24096.18;17062575.00
119601.67;202135.88;37555185.00; 40614.44;62065.61;13461144.00; 66419.80;107339.68;14212849.00; 51337.31;41684.34;9984783.00
84040.83;56597.91;87206965.00; 37251.02;12375.07;15004500.00; 66616.59;44084.04;53191647.00; 38167.83;29291.02;19273193.00
118441.03;59574.68;77774684.00; 38846.50;52521.63;31735731.00; 83944.94;20647.09;26142760.00; 51325.46;12686.74;19762782.00
105958.50;84140.59;77506233.00; 17173.05;9848.57;14869461.00; 65464.32;57466.03;39454425.00; 42755.57;33431.28;23301104.00
217163.21;17897.72;139773180.00; 57561.96;24007.30;43875057.00; 112413.05;11624.59;64127725.00; 64583.42;19389.48;31906016.00
715245.29;183851.77;157832893.00; 203241.06;46890.46;47311742.00; 326578.69;77959.45;70499646.00; 189142.21;73293.75;40157020.00
2818.53;1964.36;508215.00; 1466.54;882.40;264435.00; 0.00;0.00;0.00; 1312.39;1057.32;236640.00
928217.57;497340.40;47691640.00; 312098.84;148527.71;7233556.00; 309644.05;210755.20;21326514.00; 309106.85;173422.47;19206382.00
11685.81;14371.47;66879706.00; 2325.55;2171.22;16584131.00; 6635.41;8236.25;28462206.00; 5264.05;8196.67;21583091.00
2855.55;3751.95;11914404.00; 2696.21;3330.56;3973227.00; 508.56;881.60;4846394.00; 686.64;1026.13;3586776.00
2463.80;747.29;7950503.00; 2242.53;1523.57;3791708.00; 463.42;395.16;2831127.00; 411.81;227.01;1654115.00
1105.61;2398.37;5457140.00; 968.64;2159.58;2675312.00; 448.39;393.76;2039086.00; 467.36;348.28;1007404.00
70092.07;92627.13;218887558.00; 41642.72;27054.12;75452761.00; 31465.45;24367.55;72028009.00; 36561.57;43009.27;72206937.00
933137.06;393902.23;212580329.00; 315075.58;123382.64;74473369.00; 311417.55;180578.05;68949224.00; 310887.10;122254.70;69163871.00
13361.85;10960.65;1141070.00; 0.00;0.00;0.00; 8734.89;6732.29;922061.00; 6597.19;6025.67;218864.00
14819.85;11102.39;3851364.00; 0.00;0.00;0.00; 14408.46;11505.76;3033669.00; 1512.29;1254.75;878864.00
8788.44;7443.36;4758924.00; 0.00;0.00;0.00; 9196.70;8096.09;4046491.00; 431.34;353.85;1033155.00
11417.64;4850.56;6419863.00; 0.00;0.00;0.00; 8750.81;3076.29;5394543.00; 1472.18;752.85;1176536.00
40087.77;34195.14;5129515.00; 0.00;0.00;0.00; 35533.44;29284.29;4559076.00; 9654.08;8326.28;1818981.00
fim do video!
>>> 
