Python 2.7.13 (v2.7.13:a06454b1afa1, Dec 17 2016, 20:53:40) [MSC v.1500 64 bit (AMD64)] on win32
Type "copyright", "credits" or "license()" for more information.
>>> 
=== RESTART: C:\GitLocal\SummarizationAlgorithm\SummarizationAlgorithm.py ===
Histograma;textura;movimento
88794.80;87399.04;49557782.00; 81015.91;8354.00;20249499.00; 28964.59;48726.24;14367524.00; 21519.43;24883.92;14809053.00
8701.82;7021.37;77960051.00; 4756.81;5442.75;16836779.00; 5493.37;4808.28;32927274.00; 3705.40;3076.56;28640545.00
10455.27;10504.07;84777593.00; 6167.28;9310.91;18716904.00; 6372.03;7426.25;33471476.00; 5859.26;7518.39;32912721.00
76706.99;34339.35;166258865.00; 69246.55;14279.75;49822305.00; 27337.66;28878.76;68004177.00; 17506.30;12449.34;49054958.00
526533.81;246417.42;113936609.00; 141729.54;48578.77;27483595.00; 187876.89;64432.09;44218434.00; 197737.15;154740.35;42152660.00
402557.23;149448.98;101046926.00; 140844.94;78444.11;29382022.00; 98306.12;19372.56;37164707.00; 172415.43;68707.76;34947789.00
108864.88;71915.64;114154246.00; 13111.38;19282.92;32949054.00; 75034.39;79365.69;47276360.00; 41893.71;5706.28;34327587.00
46849.27;69808.82;102147821.00; 9459.69;28016.92;31901024.00; 40766.55;28076.36;42336541.00; 18974.24;21633.06;28128972.00
64401.68;52393.90;100387889.00; 36292.43;85447.85;34014905.00; 24002.37;52991.60;43875409.00; 36948.90;56755.48;22667714.00
148407.32;88646.39;114075385.00; 54948.63;59658.11;36080338.00; 59367.19;60789.92;38538288.00; 43217.02;36637.03;39314410.00
47383.75;54158.17;116129508.00; 25938.33;19532.08;35644338.00; 9802.22;7871.25;41405095.00; 29540.95;28393.85;39634557.00
121667.36;141436.38;96466390.00; 50248.00;40434.75;21834285.00; 50501.58;55055.87;42305961.00; 27063.21;51601.04;32972848.00
166134.86;441236.34;96224658.00; 72099.95;122908.72;38399024.00; 94478.46;176393.78;29263626.00; 64209.05;148997.17;28531279.00
51498.23;49961.51;90121434.00; 23735.15;35909.84;28792547.00; 30365.86;10879.42;30086408.00; 22913.05;12362.52;31755958.00
135119.97;275826.49;140851309.00; 70189.08;34360.83;46018203.00; 80921.54;143914.77;56176445.00; 62625.17;119127.85;38659476.00
34847.77;29121.05;76634255.00; 8990.71;10827.16;30467557.00; 17415.56;6604.35;34613564.00; 38230.84;19687.17;11939568.00
29220.71;27152.81;97940058.00; 14970.07;10108.42;34478827.00; 22349.95;22550.61;30181999.00; 16344.40;8448.39;33706407.00
176407.38;185255.30;101143249.00; 67542.72;26036.99;31609478.00; 77857.80;116422.17;38347808.00; 46085.70;73694.14;31621725.00
54856.03;21953.76;104366326.00; 22055.31;16825.59;34257311.00; 36894.94;27171.50;35169410.00; 23363.37;13267.33;35205136.00
119089.55;373795.79;129373760.00; 35712.90;139631.22;38015762.00; 71162.74;126436.77;54406199.00; 32572.33;102885.93;37186885.00
149593.96;430745.40;95494788.00; 70782.31;165823.52;34828623.00; 72559.48;126484.72;44476190.00; 53373.06;141181.03;16069955.00
75439.28;117657.41;97437690.00; 31434.57;70213.33;33655833.00; 41850.18;18390.62;35535451.00; 46852.60;40718.18;28577532.00
128932.14;157007.19;107404925.00; 55310.49;36699.59;32140898.00; 56217.13;81178.46;44197764.00; 39605.60;60032.47;31067281.00
27118.81;9365.45;129506296.00; 15724.72;8667.33;48229250.00; 17796.88;4546.07;44372985.00; 13495.69;11021.39;37418748.00
39385.38;43694.89;130183933.00; 20447.73;14947.69;51179323.00; 24965.75;17982.84;48336009.00; 15893.38;13841.19;31043011.00
145070.10;238456.80;76123577.00; 70160.76;80628.88;29520972.00; 65894.95;100258.25;25007007.00; 69891.72;73590.85;21680891.00
37105.70;45564.98;54107523.00; 13793.38;6436.21;16691468.00; 21997.18;25875.13;17697932.00; 21587.28;21888.11;19958978.00
160054.07;294367.65;129164270.00; 66966.30;79673.64;37993433.00; 93616.29;136661.50;51965677.00; 82811.49;98021.25;39452706.00
55572.24;50349.86;60298834.00; 28497.94;10171.56;15708010.00; 28654.05;41410.87;21418626.00; 27891.13;17004.97;23607969.00
71959.52;157032.78;105736394.00; 31610.07;57148.88;33650683.00; 38632.37;79280.77;41355492.00; 41711.99;28680.02;31124443.00
75584.24;51239.14;105584040.00; 14777.48;17115.87;36590179.00; 32461.50;18100.70;42417087.00; 38186.19;21698.10;27094511.00
29097.47;12600.16;101360034.00; 3660.58;7370.67;30197310.00; 11206.30;11517.27;39058934.00; 26142.13;9977.81;32381240.00
27086.98;32541.17;109114712.00; 8435.41;7985.53;35859401.00; 9189.31;15863.05;43006812.00; 21238.97;10025.60;30551052.00
86954.99;129896.73;81372797.00; 37101.08;52962.94;19328802.00; 33759.10;44964.82;32757541.00; 36064.25;36564.49;29174905.00
23613.43;11221.27;97996405.00; 8713.25;8666.33;29722624.00; 16068.93;14222.48;38451370.00; 15070.28;6242.43;30148791.00
55265.84;66428.50;99994162.00; 47771.81;44950.03;30060326.00; 28102.75;33355.17;41476767.00; 24941.14;64435.17;28529526.00
16857.60;11749.37;109381112.00; 8028.37;10320.79;36147665.00; 11192.91;15485.74;41163778.00; 4799.79;5827.45;32392616.00
101749.54;100271.09;80000784.00; 66929.77;47780.19;20830945.00; 39521.77;31324.77;34380232.00; 19813.31;39157.61;24717148.00
69295.51;72193.34;97728247.00; 23857.84;22412.08;31041348.00; 44798.09;31173.09;38772429.00; 22704.06;31457.15;28116573.00
57454.71;35968.25;107949727.00; 53314.14;31504.21;38101179.00; 19993.33;29023.02;38325897.00; 10428.58;8715.01;31708616.00
119127.50;81869.06;97919473.00; 50508.36;43521.05;25976482.00; 56268.04;58147.92;39659052.00; 32046.00;37998.87;32288519.00
118009.21;126701.91;98120799.00; 66928.62;16443.41;34251936.00; 48711.90;70176.54;35760038.00; 32707.33;40966.38;28295317.00
20528.90;44854.58;95226999.00; 11018.04;6590.36;29498288.00; 9416.59;20601.25;38954746.00; 9888.59;20336.95;27271578.00
103259.65;33810.67;106420949.00; 66574.13;23633.67;41909595.00; 46647.60;22776.85;36592553.00; 21857.73;16196.72;27815523.00
93046.20;48563.10;125187349.00; 49479.25;16835.53;45142774.00; 46478.92;49826.97;45692967.00; 26159.66;19125.35;34775874.00
27239.56;29340.32;105238398.00; 20699.36;29361.76;37035986.00; 12573.11;11981.19;39198452.00; 7524.42;7409.50;29398691.00
40095.67;41776.15;86858691.00; 36565.47;52481.23;29032271.00; 20073.81;17410.68;37990742.00; 22534.36;18879.20;19916248.00
83322.92;66084.91;88970763.00; 24254.24;21937.06;32682116.00; 36639.83;20943.87;36297093.00; 38434.31;59602.30;20025487.00
106204.83;48812.66;107742576.00; 30788.57;72762.27;39300292.00; 46764.39;29408.94;39695655.00; 44428.12;60836.30;29243394.00
57868.99;59566.31;93018175.00; 47119.78;29849.06;22227808.00; 23898.82;27876.31;40595686.00; 15345.71;12594.44;30196344.00
30204.47;11827.70;106368841.00; 24555.61;19670.26;33182373.00; 12064.29;16869.93;42532199.00; 7003.69;5012.19;30976901.00
102762.22;76209.83;94241879.00; 48865.43;37361.40;15820378.00; 40083.60;51066.11;44176946.00; 42730.82;37401.94;34089052.00
26438.18;22728.64;80362887.00; 11400.13;9337.08;22989441.00; 12044.08;27128.87;33410295.00; 11244.29;11530.91;24443746.00
116642.84;173390.77;96501208.00; 53408.32;83649.82;24574487.00; 41484.39;59003.30;40141150.00; 36542.86;34228.88;32205992.00
113850.31;125016.46;107312922.00; 47756.80;38601.65;36484507.00; 41354.89;55153.73;39440238.00; 33244.30;37185.62;31466156.00
89505.65;141301.67;90891398.00; 73519.19;110054.95;18036403.00; 27500.81;38350.33;41965515.00; 26553.97;16655.46;31149744.00
19992.14;12593.70;53812958.00; 11991.60;3493.48;6680529.00; 13100.51;15705.04;22020461.00; 7298.61;6440.03;25153223.00
85631.53;130075.85;72162530.00; 70119.77;28164.13;16545750.00; 60991.23;81625.62;30574589.00; 38920.27;69978.19;25427378.00
73209.83;135394.68;110908212.00; 34119.65;57610.33;32958184.00; 38997.95;61763.13;43033035.00; 35228.86;20690.10;35104728.00
53343.22;70584.22;88067162.00; 31574.57;8252.30;28162406.00; 25940.34;19294.15;33210399.00; 21929.94;54239.06;26892674.00
28244.86;81680.84;81523926.00; 19497.10;37743.89;26573911.00; 17622.76;36302.56;30176821.00; 14246.21;16788.59;24970221.00
82820.22;177141.84;104919486.00; 51075.16;34142.75;27005146.00; 40615.75;122030.70;45855070.00; 26804.99;54068.13;32178238.00
312756.06;207950.78;103985912.00; 181925.06;101924.37;25028849.00; 46010.29;33432.13;40424121.00; 92099.69;82741.99;38387492.00
96955.10;60598.84;60246513.00; 38031.98;30689.53;6935788.00; 46406.71;30030.38;35157622.00; 16530.71;11281.61;18723240.00
38645.13;32507.61;62468827.00; 70919.62;62950.53;13591289.00; 42048.74;48461.64;34655112.00; 66828.27;49358.77;14436875.00
417851.00;273841.85;90134361.00; 132481.65;37076.53;31076192.00; 125492.58;98070.67;35004125.00; 168265.04;161923.43;24535098.00
13110.77;12779.85;76417789.00; 10974.11;4673.73;15827668.00; 6385.50;6934.95;32618846.00; 2722.54;2860.12;28235827.00
106010.49;222619.70;107238270.00; 75018.87;40521.05;42137913.00; 34158.03;105288.19;36502055.00; 31887.99;72544.68;28998982.00
110864.07;147247.64;125271907.00; 63309.18;32599.69;44277009.00; 38553.20;81021.19;50529609.00; 33309.96;33465.71;31008886.00
57709.41;41476.98;122532573.00; 19431.42;24676.83;36530112.00; 29179.21;14302.90;49569788.00; 24035.25;8724.54;36652251.00
47127.35;79983.99;90635429.00; 33166.83;46460.22;32078637.00; 18866.66;11478.84;36785142.00; 23762.82;34689.26;21876492.00
99850.21;165380.97;88322451.00; 67878.82;92206.24;34753134.00; 37119.05;50941.83;31353325.00; 27942.29;39465.94;22057257.00
66356.18;106236.72;113930601.00; 56914.51;35283.47;40955480.00; 24570.43;47193.06;33574418.00; 26688.76;89295.62;39700293.00
110784.68;81894.68;83345482.00; 20287.17;37371.83;24964000.00; 83210.85;32668.79;34267903.00; 35760.32;48249.91;24261936.00
142508.95;244886.31;125989830.00; 100340.51;102675.04;35668184.00; 76332.81;78329.05;51682708.00; 38670.61;74214.38;38880056.00
174345.43;317603.94;142347177.00; 101336.86;104872.54;45694009.00; 65244.94;161939.78;53447917.00; 52896.23;60750.44;43510508.00
95321.47;85244.29;104817723.00; 35133.90;24394.41;36572109.00; 35414.12;34298.16;37806044.00; 44242.89;39489.76;30886402.00
142540.30;294519.36;101537284.00; 52905.68;73327.16;20273473.00; 59077.20;133227.65;41239578.00; 46943.35;88000.53;39902017.00
109198.64;327112.71;109278987.00; 49673.11;64626.13;18094374.00; 56660.50;171369.52;53266435.00; 24927.24;83436.62;38254266.00
36434.88;40424.38;112442408.00; 41971.21;61661.79;40839405.00; 27755.72;54019.06;30262111.00; 22522.25;28376.28;41690349.00
72992.29;121240.08;90534772.00; 20475.57;87858.42;25324260.00; 32046.49;16698.40;35319541.00; 34443.01;25635.15;30285542.00
286485.26;390410.09;105244977.00; 142745.50;109875.40;18400464.00; 143436.42;195334.92;43504479.00; 58723.42;96348.02;43230728.00
279429.59;131307.20;158813117.00; 152792.72;45293.96;56861425.00; 155761.12;63420.02;61756972.00; 51411.45;31717.68;40468162.00
116344.25;180847.62;109162166.00; 81518.47;59474.73;42048890.00; 41406.92;94080.52;31098416.00; 43539.51;31267.20;36484423.00
42706.98;48740.25;88339703.00; 55859.15;6663.48;23441018.00; 32952.75;32387.32;40440066.00; 13425.82;18228.98;24544308.00
243342.82;213355.54;82963468.00; 164558.72;85047.10;18666215.00; 86280.81;115665.02;32721322.00; 42157.39;27123.96;31618374.00
59708.01;80486.79;77980663.00; 8350.73;12004.38;11334377.00; 49768.88;65153.60;36360609.00; 11467.74;11289.65;30547376.00
44802.76;72373.42;76583461.00; 21327.41;32530.43;9988133.00; 34866.18;52644.94;37924696.00; 13955.88;14749.92;28859874.00
208166.27;115836.36;119328114.00; 173488.77;70213.94;50371897.00; 63475.55;55616.20;37725153.00; 21224.47;16158.51;31551600.00
204757.64;212182.49;92530530.00; 109920.03;75469.28;36027558.00; 76202.44;86758.36;31573086.00; 39057.62;61869.33;25341322.00
39620.71;73403.73;105745920.00; 31592.70;32085.68;34633892.00; 15924.08;25932.70;36695961.00; 11774.72;28175.25;34702525.00
33237.24;32465.55;98899728.00; 20658.72;37068.81;31072186.00; 14600.48;27688.44;38312121.00; 11365.35;20948.54;29640090.00
35183.38;20330.06;130081514.00; 25677.47;5571.46;48973587.00; 13778.68;6404.73;46577600.00; 9889.17;11796.30;35057932.00
58959.08;46715.22;87306712.00; 46086.20;50243.45;22356329.00; 14940.38;11340.06;40036013.00; 17165.80;7268.77;24942647.00
102519.70;18876.67;110604750.00; 25024.38;62569.06;28047565.00; 43635.35;12438.48;44070751.00; 45551.85;44498.48;38452545.00
62821.57;88601.60;106588545.00; 39855.09;112269.60;15793194.00; 37606.14;31710.87;42939661.00; 43722.30;65935.84;48236557.00
33715.58;60786.47;74231305.00; 24839.83;41842.65;14366505.00; 14437.89;15155.25;38251210.00; 18304.41;21700.30;21695732.00
53491.41;39412.09;108805682.00; 35538.30;44932.90;35008326.00; 18667.62;39460.87;38227868.00; 27777.01;40045.71;36055221.00
145209.27;204490.49;73443619.00; 49283.22;31218.42;20659775.00; 70889.25;106692.97;35532340.00; 57349.30;75760.16;17452845.00
177845.84;205019.90;135260534.00; 68805.21;50192.92;46061793.00; 81321.59;120411.17;51120584.00; 51865.39;43114.23;38438619.00
103791.18;25587.27;53768273.00; 52474.31;16719.10;14453816.00; 34051.73;8634.08;24605201.00; 54747.15;33202.54;14807642.00
107160.87;56169.88;106715833.00; 60350.48;13131.62;30873400.00; 40090.25;41665.73;46535621.00; 51515.83;24588.20;29903069.00
42309.67;19469.72;117508581.00; 16174.39;7685.15;36103602.00; 18178.28;23879.03;38482183.00; 29851.25;17437.43;43204331.00
125210.74;192221.94;105479073.00; 89691.51;102135.97;38120698.00; 44179.07;82968.50;36620125.00; 53272.44;49679.59;30772374.00
131800.33;137809.87;59074417.00; 104669.77;24351.48;7059682.00; 38668.05;80071.99;25737045.00; 60392.99;50645.56;26347127.00
138846.05;56828.70;112347384.00; 94745.29;11887.01;44119159.00; 43584.81;27569.24;38645151.00; 48244.39;44998.10;29865007.00
39015.92;14359.00;103602068.00; 33531.08;13851.23;30020836.00; 20905.11;17095.26;41628532.00; 12482.62;15161.71;31988923.00
106043.30;81325.58;107900176.00; 82210.40;79653.81;34882094.00; 33425.32;16606.97;38862298.00; 20376.55;16638.54;34500148.00
90709.20;83302.11;88143252.00; 72579.51;49419.33;27269864.00; 24631.09;50991.32;38676877.00; 26360.27;59155.51;21973052.00
100869.78;86809.39;94074545.00; 86049.89;46413.36;31378874.00; 21929.66;22526.57;33220292.00; 25950.12;35769.35;29750804.00
45118.89;69638.22;77192371.00; 29414.69;27605.73;6911132.00; 19115.96;35288.58;38944687.00; 11199.31;10794.43;31529406.00
102627.14;27572.05;130228899.00; 83786.06;14773.31;52934478.00; 28301.19;19347.83;44579517.00; 28715.98;16759.95;33059711.00
112968.36;66214.94;88403099.00; 89822.24;7955.23;14140717.00; 32803.49;20369.73;43398096.00; 41873.82;41956.19;30993135.00
119235.30;42036.79;65644603.00; 93959.28;12435.08;5489801.00; 43587.81;30037.42;39656490.00; 27670.71;22894.93;20905508.00
119795.77;184282.62;112167806.00; 95455.64;88562.78;34842893.00; 39433.97;60147.71;44771514.00; 40782.38;59816.66;33045627.00
10396.46;7965.39;85206638.00; 6923.85;5030.20;15014471.00; 6231.74;6277.83;39545913.00; 2111.03;3848.69;30731257.00
10673.51;9585.99;89747199.00; 5540.04;2113.32;17954729.00; 7323.02;3908.70;40159330.00; 3522.62;5928.00;31860640.00
123282.07;306290.40;99605530.00; 60440.49;50144.50;34406539.00; 45775.15;151193.58;38509856.00; 46208.58;129554.31;26679651.00
116380.82;263331.66;110686544.00; 41925.48;110214.57;34372963.00; 45458.64;100224.55;44766080.00; 43527.45;62903.32;31886709.00
79235.47;99417.74;118225576.00; 30679.49;51875.33;38089318.00; 29168.64;31328.38;44060750.00; 29915.38;28539.51;36376917.00
109718.91;72799.34;91611862.00; 44215.74;16648.18;28588431.00; 48787.24;51736.55;32675694.00; 34037.53;35146.96;30481162.00
122312.76;54509.04;78338926.00; 73223.69;81295.29;20761920.00; 56798.28;94464.66;21511609.00; 45980.79;33674.39;36189000.00
94321.31;160040.77;126725935.00; 62600.80;74968.54;47387466.00; 49621.09;37893.35;41611219.00; 41681.38;92207.73;38141365.00
24946.29;14997.15;83404621.00; 12108.14;7101.70;16810672.00; 18643.76;7112.98;36402134.00; 8522.97;10555.63;30376538.00
54948.53;73638.07;110286216.00; 27262.95;49382.10;32957407.00; 30668.12;26088.92;44793990.00; 12643.37;14232.40;33093861.00
21798.56;31421.32;95810574.00; 12024.88;25913.72;28601475.00; 9558.83;17447.28;37225596.00; 7980.20;16880.31;30074869.00
59995.52;130936.73;111909751.00; 27036.57;65160.18;34629589.00; 29489.34;66584.78;42536863.00; 13313.49;16270.80;34812143.00
65256.95;45086.04;81540096.00; 60900.26;24170.01;13739074.00; 23133.92;15284.64;35598290.00; 13305.85;32653.99;32428975.00
77658.22;117921.52;106286128.00; 67664.22;37224.16;40516683.00; 23382.39;59608.28;38577765.00; 21107.53;31721.17;27525792.00
26321.50;20802.05;83841450.00; 7762.48;6934.83;21156116.00; 11847.59;7072.05;36438448.00; 14251.47;14908.47;26449609.00
273240.69;199072.72;92969664.00; 110671.26;42175.79;27347521.00; 115173.34;107612.09;36909362.00; 55214.40;58199.99;28558512.00
266778.30;310627.71;109804516.00; 104501.19;87182.32;31388925.00; 113460.88;133388.45;44813375.00; 51888.32;92210.02;33672086.00
214429.32;301329.29;95388552.00; 175408.29;155587.18;22390732.00; 39046.03;89110.01;39797624.00; 29948.33;61154.95;33412248.00
194392.49;18211.30;122817697.00; 161402.17;7948.04;50007042.00; 35418.81;12730.60;40449148.00; 16155.50;13331.53;32606167.00
89005.38;226946.51;109945302.00; 61524.10;142886.58;34081866.00; 29994.99;58235.00;38561192.00; 17902.33;28306.07;37465596.00
68634.45;163228.85;107104020.00; 25869.95;37941.53;30059918.00; 26234.53;69842.78;43851786.00; 37657.45;57875.09;33424391.00
80963.49;60925.34;102821808.00; 33011.20;57705.67;34740491.00; 36529.81;24868.96;35747759.00; 41091.99;49042.68;32681335.00
25117.12;44221.34;123143621.00; 13730.48;14233.21;50105476.00; 21851.84;24235.26;42266748.00; 10921.72;12829.85;31031107.00
43051.33;70335.61;89614772.00; 33449.65;20072.33;19102923.00; 21450.98;28736.36;40792377.00; 18775.61;27165.66;29912545.00
34770.17;38438.42;104687183.00; 37506.81;41225.58;39459491.00; 19593.73;37862.48;36500474.00; 7605.00;10374.23;28935539.00
79644.95;215235.14;95014058.00; 64555.40;32977.01;20268671.00; 43224.70;137860.14;41694682.00; 25347.74;64637.04;33151121.00
154045.43;36813.54;85112785.00; 106244.45;40756.15;28956318.00; 63842.14;22033.81;25748565.00; 31954.10;33552.92;30824076.00
79431.43;29769.34;62361244.00; 42091.02;21783.71;19286073.00; 41533.64;12684.18;22263476.00; 21922.41;10018.46;21130112.00
206560.73;314332.42;114180686.00; 123977.61;113174.32;37204857.00; 80306.70;129945.30;43849151.00; 27560.99;81995.01;33478889.00
125319.89;144289.34;80559580.00; 63553.19;40550.52;22109849.00; 39585.25;50178.68;28502319.00; 43546.81;56902.46;29789862.00
14107.25;34601.39;94384187.00; 8163.48;15566.52;27601501.00; 7425.25;9245.52;42251115.00; 6254.04;6343.41;25737369.00
67191.51;154601.69;102602843.00; 45665.46;38462.69;28546874.00; 23093.19;51562.89;36734199.00; 32106.19;68814.67;38297814.00
103460.26;247287.32;80550941.00; 73528.90;77411.22;17425577.00; 38340.47;124513.51;33212987.00; 15024.73;53916.92;30117822.00
119758.03;146275.29;77112899.00; 70702.00;21308.76;20405500.00; 43451.49;39734.61;23739597.00; 39709.82;90693.78;33354205.00
118399.74;20594.68;106676803.00; 52694.12;13274.74;33429733.00; 50452.07;34423.73;36180792.00; 57688.75;15166.67;37203056.00
136746.27;108696.72;119438254.00; 61482.08;59364.29;33269749.00; 66782.17;22515.71;45638239.00; 70548.49;48075.66;40641349.00
110756.23;194652.27;92466516.00; 41846.68;27413.99;34034838.00; 48223.10;95858.81;36911734.00; 44406.45;85574.48;21820758.00
52665.97;48169.01;90753667.00; 31045.98;34295.26;25102166.00; 31562.95;16872.17;39205254.00; 20049.86;5465.91;26450728.00
48273.91;47213.35;91555804.00; 27417.83;47162.95;21318090.00; 18737.89;18463.74;37105571.00; 20123.47;16105.33;33362341.00
77421.41;66886.44;113068143.00; 37749.50;67594.38;43222276.00; 38429.33;29496.68;38978243.00; 20013.48;22843.19;30925693.00
213596.27;70903.50;77790708.00; 191864.88;58767.64;14643812.00; 30632.06;33913.95;34648473.00; 11582.42;15097.66;28652380.00
219913.36;13085.01;110488111.00; 192474.83;76873.44;37430925.00; 45525.55;36730.28;39536734.00; 19411.07;28986.53;33874139.00
126822.49;56183.40;100795707.00; 64099.94;17908.83;34676043.00; 64074.37;33054.65;40160939.00; 33909.86;11527.60;26063537.00
287116.23;262488.82;74610337.00; 161922.36;88560.30;17844752.00; 104724.91;77137.01;28130372.00; 79157.78;109484.72;28755604.00
308965.77;298215.75;131113667.00; 205077.52;95875.55;41953127.00; 95845.11;110156.69;52663063.00; 77579.15;103491.83;37092783.00
92411.82;62275.82;101565630.00; 50906.34;13762.88;31574007.00; 44958.83;23089.47;42290435.00; 41505.64;41894.77;27956488.00
84855.53;124610.81;118684793.00; 40306.58;35112.08;40125017.00; 34954.92;54504.07;51852078.00; 43662.98;33013.76;27106624.00
113670.66;77094.93;106093268.00; 61714.68;41349.02;36065856.00; 56250.71;45630.37;37478767.00; 25291.99;61871.84;32429265.00
15891.05;11931.54;100766536.00; 8085.89;7163.61;31177102.00; 6323.98;4723.82;36744268.00; 10681.78;4937.08;33447193.00
122178.35;90447.64;142924710.00; 58255.99;33748.53;48257859.00; 51191.01;31505.90;53434924.00; 40038.36;30014.73;41587654.00
66294.39;85833.53;111593800.00; 37176.85;44408.77;38869413.00; 30400.69;37676.15;35832847.00; 20183.89;17952.71;37219369.00
60407.81;90494.97;81559123.00; 23590.54;61915.87;28674541.00; 34475.22;26259.29;32456937.00; 28161.59;23082.92;20589897.00
125048.43;173996.09;146834380.00; 69888.62;32067.16;54891875.00; 74142.67;159917.83;47855514.00; 34845.99;14290.05;44562142.00
260379.84;252654.65;135272599.00; 172746.51;74995.36;40404606.00; 101447.36;66249.29;55673638.00; 86702.68;136384.79;39667632.00
827457.08;80236.24;168414688.00; 294948.89;16223.83;50244753.00; 318338.62;37056.98;66009277.00; 252461.97;47933.17;52501255.00
0.00;0.00;0.00; 0.00;0.00;0.00; 0.00;0.00;0.00; 0.00;0.00;0.00
fim do video!
>>> 
