88794,80;87399,04;49557782,00; 63966,73;5142,13;13908614,00; 38348,02;71658,81;24824263,00; 16349,55;15823,05;10862396,00
8701,82;7021,37;77960051,00; 1781,95;1754,64;8393723,00; 8948,23;6809,68;46372373,00; 3798,18;1839,69;23535082,00
10455,27;10504,07;84777593,00; 2395,85;4379,66;9305931,00; 8646,03;8645,91;52439684,00; 5009,16;2446,30;23216112,00
76706,99;34339,35;166258865,00; 64935,14;16450,83;33695651,00; 32684,02;35926,29;99937896,00; 14109,14;8612,25;33247893,00
526533,81;246417,42;113936609,00; 97025,52;21148,44;19994561,00; 291497,50;135633,33;64639932,00; 138823,88;108717,92;29220196,00
402557,23;149448,98;101046926,00; 96230,44;33620,50;18404403,00; 188293,98;80685,26;60085859,00; 123009,18;49646,82;23004256,00
108864,88;71915,64;114154246,00; 10047,04;9674,64;19664783,00; 85082,40;63310,83;72870429,00; 33729,89;5051,94;22017789,00
46849,27;69808,82;102147821,00; 7384,56;21731,16;21599322,00; 44784,50;45217,11;65555793,00; 20092,09;9954,72;15211422,00
64401,68;52393,90;100387889,00; 29564,37;59874,06;20830884,00; 34524,98;56809,29;62379406,00; 24948,34;35286,45;17347738,00
148407,32;88646,39;114075385,00; 40192,61;42295,45;25171738,00; 89962,68;71965,28;60810414,00; 29908,40;25758,18;27950884,00
47383,75;54158,17;116129508,00; 22524,45;6270,69;21120171,00; 27195,81;32349,41;69351466,00; 20697,91;15352,04;25928260,00
121667,36;141436,38;96466390,00; 38327,28;31723,99;13744409,00; 68469,45;73944,21;61329121,00; 20793,65;40592,49;21694488,00
166134,86;441236,34;96224658,00; 55012,51;84775,03;27994598,00; 121832,13;271981,65;47936393,00; 38145,87;92387,07;20262938,00
51498,23;49961,51;90121434,00; 18182,28;27158,74;19264278,00; 39644,29;25030,28;49432306,00; 13231,66;8684,75;21938329,00
135119,97;275826,49;140851309,00; 38984,54;18120,68;21771758,00; 106326,84;206234,43;94006723,00; 39631,07;59871,30;25230633,00
34847,77;29121,05;76634255,00; 6147,13;8627,13;19941592,00; 15290,10;30298,61;49338376,00; 28290,41;14216,29;7740721,00
29220,71;27152,81;97940058,00; 11122,22;7677,06;24858006,00; 24431,31;10518,50;52657221,00; 8573,71;17303,84;20935475,00
176407,38;185255,30;101143249,00; 46779,22;21060,42;22121318,00; 107134,14;166004,68;58849299,00; 33968,92;34939,32;20608394,00
54856,03;21953,76;104366326,00; 16293,37;15983,39;23625099,00; 44653,82;31934,14;55446103,00; 15062,09;12688,91;25560655,00
119089,55;373795,79;129373760,00; 22814,84;95891,87;24469366,00; 95568,82;200800,04;77269601,00; 24131,76;75271,60;27816099,00
149593,96;430745,40;95494788,00; 48476,57;113428,69;24160448,00; 104763,64;214275,94;62296786,00; 43304,90;103840,81;8917534,00
75439,28;117657,41;97437690,00; 24500,44;45779,88;23593705,00; 60489,06;44054,48;57417690,00; 39337,05;33870,53;16757421,00
128932,14;157007,19;107404925,00; 46528,60;22926,95;22339342,00; 86167,88;106474,57;65113067,00; 29281,08;50893,90;19953534,00
27118,81;9365,45;129506296,00; 14120,45;9944,97;34320283,00; 20738,96;11491,04;70946358,00; 9611,68;13229,67;24754342,00
39385,38;43694,89;130183933,00; 20917,31;14070,48;37985840,00; 32081,07;29051,15;73083936,00; 9304,42;8080,20;19488567,00
145070,10;238456,80;76123577,00; 56418,13;40349,42;21630065,00; 93164,04;166689,50;39568194,00; 45487,20;49159,70;15010611,00
37105,70;45564,98;54107523,00; 12452,58;3637,72;12230866,00; 25579,76;35699,58;27086077,00; 15227,95;15251,68;15031435,00
160054,07;294367,65;129164270,00; 55248,39;59415,34;26666805,00; 110067,19;197162,44;76221071,00; 55701,83;60246,93;26523940,00
55572,24;50349,86;60298834,00; 19723,09;13261,69;11327535,00; 33280,83;53092,92;32505627,00; 23212,24;11773,13;16901443,00
71959,52;157032,78;105736394,00; 17041,98;32884,64;23328539,00; 56062,88;115388,11;63319078,00; 31316,65;22151,19;19483001,00
75584,24;51239,14;105584040,00; 9967,85;17277,21;23615139,00; 50774,38;23099,26;64594482,00; 25078,16;14903,16;17645773,00
29097,47;12600,16;101360034,00; 4021,72;4911,23;20352998,00; 15099,89;13046,45;59171297,00; 19908,90;4637,12;22099657,00
27086,98;32541,17;109114712,00; 6887,44;6135,28;24885181,00; 12038,08;23171,47;64023171,00; 15239,51;5643,83;20531816,00
86954,99;129896,73;81372797,00; 27370,73;36292,58;13079257,00; 49450,78;69336,34;49682902,00; 27077,33;29524,39;18499089,00
23613,43;11221,27;97996405,00; 9205,48;10057,33;20506734,00; 18580,80;23619,47;56936495,00; 13006,00;9223,17;20879556,00
55265,84;66428,50;99994162,00; 36862,60;31245,42;21225737,00; 35559,16;44856,81;58383195,00; 23338,13;61441,55;20457687,00
16857,60;11749,37;109381112,00; 6477,46;2733,84;23236452,00; 13290,74;8696,83;64630305,00; 4403,87;5647,52;21837302,00
101749,54;100271,09;80000784,00; 50562,55;28650,48;14198331,00; 65959,59;70370,36;49431664,00; 14912,00;18488,79;16298330,00
69295,51;72193,34;97728247,00; 29455,17;17545,34;15347105,00; 72095,19;71722,89;63664577,00; 15712,80;18062,05;18739948,00
57454,71;35968,25;107949727,00; 44040,95;42316,87;27079621,00; 25703,64;24994,57;59689224,00; 7690,46;6895,98;21366847,00
119127,50;81869,06;97919473,00; 35798,79;30686,79;16066306,00; 77655,47;44493,12;58596286,00; 23193,08;30654,00;23261461,00
118009,21;126701,91;98120799,00; 59911,33;7584,62;23616548,00; 66417,97;104601,93;54471942,00; 24792,68;22389,72;20218801,00
20528,90;44854,58;95226999,00; 12081,63;3869,69;19634715,00; 11062,92;29604,59;57761765,00; 8342,32;13965,81;18328132,00
103259,65;33810,67;106420949,00; 65361,97;18023,97;30426077,00; 58392,13;37611,73;57944166,00; 13853,74;19869,23;17947428,00
93046,20;48563,10;125187349,00; 42102,24;7279,31;31283910,00; 59864,58;55182,60;69605970,00; 16983,20;7921,05;24721735,00
27239,56;29340,32;105238398,00; 13598,92;20120,56;24223952,00; 18301,59;16714,57;61709268,00; 7408,09;9950,16;19482424,00
40095,67;41776,15;86858691,00; 30599,83;42095,72;18656644,00; 23369,85;22576,33;53886556,00; 14703,56;11237,71;14396061,00
83322,92;66084,91;88970763,00; 18829,06;15877,42;22891363,00; 50591,04;29861,67;51163384,00; 27612,56;48708,89;14949949,00
106204,83;48812,66;107742576,00; 24335,51;62043,60;26793314,00; 64889,47;40398,78;61706677,00; 32118,88;40627,42;19739350,00
57868,99;59566,31;93018175,00; 31659,20;4624,61;10732522,00; 37254,51;65971,76;62422589,00; 10376,48;14088,68;20004382,00
30204,47;11827,70;106368841,00; 15397,07;9942,80;18710062,00; 22824,40;13032,91;67302208,00; 4101,28;4133,69;20704190,00
102762,22;76209,83;94241879,00; 38103,84;18873,58;9391830,00; 59609,57;75786,19;60581265,00; 32770,29;36360,44;24203822,00
26438,18;22728,64;80362887,00; 8544,83;3991,28;17439515,00; 15555,91;26526,25;50173826,00; 8536,04;4790,69;13230141,00
116642,84;173390,77;96501208,00; 38679,79;61800,93;16500146,00; 59594,47;88707,98;58819398,00; 30048,98;28029,76;21338742,00
113850,31;125016,46;107312922,00; 30977,94;24483,80;23541619,00; 70539,86;94557,67;66868555,00; 17866,69;9977,59;17090105,00
89505,65;141301,67;90891398,00; 65434,48;89553,13;10592928,00; 39043,90;51322,04;59210282,00; 17690,98;11332,15;21348452,00
19992,14;12593,70;53812958,00; 11319,16;2698,32;3122153,00; 14158,67;11260,28;33232542,00; 6244,02;4941,25;17499518,00
85631,53;130075,85;72162530,00; 65214,22;39483,09;11250664,00; 77863,43;132645,95;43070824,00; 21860,89;37986,69;18226229,00
73209,83;135394,68;110908212,00; 25245,41;39097,18;22978158,00; 51008,27;96141,97;63194059,00; 23093,90;10399,46;24923730,00
53343,22;70584,22;88067162,00; 22370,89;8874,28;20297747,00; 37809,55;36361,43;48604890,00; 19297,57;46668,40;19362842,00
28244,86;81680,84;81523926,00; 16956,82;25749,71;17387626,00; 21041,50;49561,00;45184595,00; 12152,76;13357,91;19217723,00
82820,22;177141,84;104919486,00; 39288,25;18845,83;17383770,00; 52632,64;163878,44;69110369,00; 22493,42;30537,06;18493675,00
312756,06;207950,78;103985912,00; 137377,60;63508,56;16679286,00; 117233,10;96532,39;62438472,00; 61505,03;53070,58;24722704,00
96955,10;60598,84;60246513,00; 14861,88;11369,41;1796516,00; 68265,03;44136,07;47714376,00; 17136,73;13696,53;11305758,00
38645,13;32507,61;62468827,00; 30380,71;24100,33;6516349,00; 31971,92;36272,06;46867713,00; 36313,95;23385,44;9299214,00
417851,00;273841,85;90134361,00; 92849,04;16000,81;12790016,00; 235231,55;164153,27;59663309,00; 100852,27;100399,40;17768418,00
13110,77;12779,85;76417789,00; 10791,53;2125,96;7944526,00; 6961,35;9084,62;48771570,00; 2340,28;2715,63;19949597,00
106010,49;222619,70;107238270,00; 71299,98;7566,06;36204912,00; 50137,57;160047,69;53043654,00; 23326,56;46552,05;18390384,00
110864,07;147247,64;125271907,00; 49950,46;20614,28;31273517,00; 60922,78;111646,52;73968814,00; 25053,68;17294,28;20573173,00
57709,41;41476,98;122532573,00; 14392,18;11495,76;21600729,00; 39863,92;27133,23;74639651,00; 19574,32;6582,96;26359678,00
47127,35;79983,99;90635429,00; 29293,72;43070,28;23358742,00; 26394,48;18959,46;52565580,00; 15671,05;24662,15;14994638,00
99850,21;165380,97;88322451,00; 57921,97;87615,91;25000313,00; 52425,24;70437,89;47748984,00; 20634,64;30041,00;15414419,00
66356,18;106236,72;113930601,00; 51917,97;44614,90;31605710,00; 31473,95;80899,84;54574213,00; 22392,11;66752,45;28050268,00
110784,68;81894,68;83345482,00; 16091,90;19823,82;17857601,00; 99324,61;44388,06;49064903,00; 24536,64;39366,85;16571335,00
142508,95;244886,31;125989830,00; 68925,60;63139,36;23738384,00; 90770,93;128394,89;77051829,00; 26102,67;59446,12;25440735,00
174345,43;317603,94;142347177,00; 69534,26;67620,41;30755893,00; 95480,90;222944,32;82632464,00; 35375,21;37252,54;29264077,00
95321,47;85244,29;104817723,00; 31906,25;12589,65;24701165,00; 50730,48;60144,82;59435504,00; 31030,76;30141,16;21004494,00
142540,30;294519,36;101537284,00; 42030,94;36367,20;13522943,00; 77819,99;204387,78;59422001,00; 32875,88;54724,45;28470124,00
109198,64;327112,71;109278987,00; 40769,60;10297,97;4410030,00; 74246,05;278276,70;79338313,00; 16709,12;52299,50;25644482,00
36434,88;40424,38;112442408,00; 46394,75;63005,88;33961331,00; 38242,12;57411,76;49562472,00; 15566,56;25021,93;29268062,00
72992,29;121240,08;90534772,00; 19293,07;62206,00;13941739,00; 45057,56;41201,07;57436423,00; 25637,14;25089,38;19551181,00
286485,26;390410,09;105244977,00; 103524,71;71385,00;10799427,00; 195214,74;268980,94;63147328,00; 42127,97;61286,83;31188916,00
279429,59;131307,20;158813117,00; 110449,16;29086,98;39513559,00; 208297,54;82731,82;89259002,00; 36566,23;26837,66;30313998,00
116344,25;180847,62;109162166,00; 64297,42;36342,81;29292448,00; 58983,54;136215,88;55471252,00; 30278,83;11794,84;24868029,00
42706,98;48740,25;88339703,00; 44776,68;14636,87;15513182,00; 31559,15;26634,21;54501380,00; 13356,73;18265,10;18410830,00
243342,82;213355,54;82963468,00; 86539,72;53682,34;9996533,00; 157289,97;158269,40;49106167,00; 31051,90;15786,05;23826001,00
59708,01;80486,79;77980663,00; 5762,97;4268,89;6415738,00; 59197,30;75931,65;50350411,00; 7871,79;8233,45;21476213,00
44802,76;72373,42;76583461,00; 10505,22;16711,09;4226134,00; 43431,63;59440,33;53993086,00; 10619,30;4847,33;18553483,00
208166,27;115836,36;119328114,00; 135456,59;36253,20;38220008,00; 81102,23;85905,50;61532508,00; 16170,77;14086,99;19896134,00
204757,64;212182,49;92530530,00; 90575,57;65785,41;26661498,00; 102499,09;117414,07;48153250,00; 27892,72;42893,33;18127218,00
39620,71;73403,73;105745920,00; 24060,62;31485,02;25442232,00; 22245,71;33435,83;54987829,00; 11124,91;24890,88;25602317,00
33237,24;32465,55;98899728,00; 18279,98;33851,47;22136214,00; 22175,05;33993,75;56411077,00; 8971,98;17417,39;20477106,00
35183,38;20330,06;130081514,00; 23366,53;1995,55;35526116,00; 18153,04;8233,33;71797712,00; 7659,00;12088,54;23285291,00
58959,08;46715,22;87306712,00; 39620,24;42679,38;13440807,00; 25417,56;13279,82;57490970,00; 12339,23;8996,35;16510280,00
102519,70;18876,67;110604750,00; 24357,11;48391,71;16574997,00; 60585,89;15298,78;66530319,00; 31671,59;31931,63;27465545,00
62821,57;88601,60;106588545,00; 40008,34;97739,18;6689366,00; 49665,97;50491,79;65546602,00; 34220,22;41462,11;34679905,00
33715,58;60786,47;74231305,00; 24032,99;12659,20;6361140,00; 18853,41;35932,83;53082815,00; 15568,15;15645,08;14869492,00
53491,41;39412,09;108805682,00; 30712,62;21818,62;22818870,00; 34302,63;20098,29;62030714,00; 22732,50;24005,27;24014336,00
145209,27;204490,49;73443619,00; 42367,43;16073,86;11227699,00; 98453,67;162405,01;50559507,00; 41700,87;36538,97;11857754,00
177845,84;205019,90;135260534,00; 54453,39;18092,94;34184244,00; 116064,09;181759,58;75609867,00; 36471,68;18639,63;25826885,00
103791,18;25587,27;53768273,00; 50042,56;10352,47;7596983,00; 56387,89;23617,42;35838050,00; 39052,51;15205,22;10431626,00
107160,87;56169,88;106715833,00; 50419,49;21865,99;19562223,00; 60911,89;55060,42;64021159,00; 36236,26;20696,25;23728708,00
42309,67;19469,72;117508581,00; 11645,17;6484,74;25087592,00; 26452,02;16078,71;61720518,00; 23190,42;6854,95;30982006,00
125210,74;192221,94;105479073,00; 66418,80;68400,55;26230371,00; 61762,11;114657,02;58879607,00; 40979,94;35122,49;20403219,00
131800,33;137809,87;59074417,00; 83178,60;13266,35;4538307,00; 59905,19;100175,11;35631659,00; 47269,05;36947,04;19027164,00
138846,05;56828,70;112347384,00; 79206,62;11481,45;31318990,00; 68083,09;32986,00;60076504,00; 37856,86;39333,74;20891695,00
39015,92;14359,00;103602068,00; 29841,21;806,05;19092392,00; 27072,41;15246,55;62874184,00; 10252,99;8588,50;21671715,00
106043,30;81325,58;107900176,00; 59995,36;51422,19;25669933,00; 54539,21;41177,27;59168242,00; 14460,43;11594,24;23406365,00
90709,20;83302,11;88143252,00; 71403,18;21082,10;9756711,00; 38681,08;56050,80;63117200,00; 20620,85;43778,91;15343486,00
100869,78;86809,39;94074545,00; 81114,77;49980,41;26300676,00; 31380,78;30779,45;46563753,00; 18749,02;25287,37;21485541,00
45118,89;69638,22;77192371,00; 23271,55;7543,66;3801960,00; 27679,33;60325,17;50586662,00; 8501,14;7548,23;22996603,00
102627,14;27572,05;130228899,00; 61066,74;3110,30;37141494,00; 45029,10;22734,67;71440604,00; 20740,34;14694,98;21991608,00
112968,36;66214,94;88403099,00; 66585,79;3891,51;8542290,00; 55986,09;48130,28;59376105,00; 27917,83;19193,12;20613553,00
119235,30;42036,79;65644603,00; 60351,41;5742,82;1857865,00; 75080,21;37933,31;52171062,00; 20091,73;7401,90;11878114,00
119795,77;184282,62;112167806,00; 64144,70;34475,29;12102274,00; 71279,81;114229,16;75700298,00; 33110,88;47000,43;24451406,00
10396,46;7965,39;85206638,00; 4911,33;3348,60;4409321,00; 9152,79;6608,57;60831167,00; 1591,17;3243,60;19949339,00
10673,51;9585,99;89747199,00; 4221,66;2642,85;6703533,00; 8807,45;5217,70;58899877,00; 3070,27;4172,17;24292745,00
123282,07;306290,40;99605530,00; 54822,93;41735,26;28694953,00; 71932,99;196870,67;53676107,00; 31982,31;87392,82;17224986,00
116380,82;263331,66;110686544,00; 29963,70;75306,35;24374819,00; 68635,50;154287,55;65074509,00; 31192,08;43210,53;21576424,00
79235,47;99417,74;118225576,00; 21461,94;39613,28;25681110,00; 45725,92;51941,72;67426786,00; 23801,02;18862,71;25419089,00
109718,91;72799,34;91611862,00; 29634,76;9926,94;20541090,00; 69571,50;56003,87;50432165,00; 24207,36;20499,46;20772032,00
122312,76;54509,04;78338926,00; 56420,02;64140,12;14428845,00; 77711,22;83264,79;40104251,00; 34646,72;29817,44;23929433,00
94321,31;160040,77;126725935,00; 52681,49;55411,50;36342788,00; 64356,54;55942,70;62304014,00; 32694,49;76090,11;28433498,00
24946,29;14997,15;83404621,00; 11342,34;7869,86;9678838,00; 21683,43;17561,76;53064557,00; 5194,82;5960,73;20710699,00
54948,53;73638,07;110286216,00; 23206,87;36677,48;22487902,00; 40562,36;44605,11;66849534,00; 9715,63;8029,82;21528625,00
21798,56;31421,32;95810574,00; 9999,65;17593,88;19516686,00; 14380,77;23455,24;55379530,00; 6973,13;11082,50;21005724,00
59995,52;130936,73;111909751,00; 22592,12;40314,79;23342186,00; 41440,36;92741,80;63512220,00; 11267,05;12332,83;25124189,00
65256,95;45086,04;81540096,00; 60823,90;24396,99;9042815,00; 30122,13;11852,04;50579837,00; 9188,64;23606,26;22143687,00
77658,22;117921,52;106286128,00; 65333,90;20476,66;29853081,00; 28526,84;94414,85;56509796,00; 15278,57;21720,80;20257363,00
26321,50;20802,05;83841450,00; 6407,53;6201,50;13203402,00; 17453,09;7913,76;52864147,00; 10904,02;9189,57;18045979,00
273240,69;199072,72;92969664,00; 76391,83;20129,81;18931408,00; 169510,33;164066,35;54562956,00; 34457,67;34141,14;19321031,00
266778,30;310627,71;109804516,00; 62680,00;49808,01;20677686,00; 170916,86;193980,29;64125098,00; 35921,43;66752,76;25141671,00
214429,32;301329,29;95388552,00; 133298,65;111460,99;14549775,00; 81619,36;150016,91;59331835,00; 20328,85;41835,20;21718994,00
194392,49;18211,30;122817697,00; 80464,96;6908,66;23587206,00; 114581,59;15958,01;77111486,00; 10496,14;9119,29;22363665,00
89005,38;226946,51;109945302,00; 43176,32;95302,38;26007518,00; 50562,56;114759,21;59568001,00; 11453,87;19689,80;24533135,00
68634,45;163228,85;107104020,00; 20708,41;23814,80;22516681,00; 39528,14;97470,49;61309239,00; 29229,78;45447,83;23510175,00
80963,49;60925,34;102821808,00; 24507,08;42848,74;22076844,00; 52638,58;30000,30;58253461,00; 31222,64;34851,92;22839280,00
25117,12;44221,34;123143621,00; 13707,02;13479,20;32567329,00; 23947,14;22453,05;71687044,00; 9366,27;13788,22;18908411,00
43051,33;70335,61;89614772,00; 31417,77;18052,05;10477318,00; 22269,65;36267,59;57403944,00; 15058,25;21812,20;21727459,00
34770,17;38438,42;104687183,00; 39704,31;41316,19;33653217,00; 23888,69;52210,65;52916698,00; 6331,24;6567,96;18325589,00
79644,95;215235,14;95014058,00; 61130,36;22476,57;13363280,00; 47722,14;187197,64;57880856,00; 19861,06;39693,22;23870338,00
154045,43;36813,54;85112785,00; 81718,83;34259,44;23876927,00; 90349,31;12488,73;36779892,00; 28317,54;15211,28;24872140,00
79431,43;29769,34;62361244,00; 36703,37;16298,22;13031993,00; 48066,13;13461,83;34064275,00; 22556,12;12782,04;15583393,00
206560,73;314332,42;114180686,00; 94371,20;79158,72;26438495,00; 112801,89;190919,98;64299107,00; 22082,18;55311,71;23833451,00
125319,89;144289,34;80559580,00; 47814,48;32675,71;14115219,00; 67329,46;73925,01;45388495,00; 32698,55;42928,78;20860723,00
14107,25;34601,39;94384187,00; 7268,29;10581,19;17414488,00; 11684,17;21528,21;61672991,00; 6323,21;4264,23;15942802,00
67191,51;154601,69;102602843,00; 39061,30;32012,00;19491687,00; 29372,16;73467,35;56583588,00; 24402,43;58160,79;27503612,00
103460,26;247287,32;80550941,00; 55916,09;48728,32;11262057,00; 56402,26;174958,19;47987745,00; 10801,52;34474,41;21506584,00
119758,03;146275,29;77112899,00; 51831,53;17656,21;14681873,00; 72129,48;66203,68;39526229,00; 26729,58;64208,18;23291200,00
118399,74;20594,68;106676803,00; 33912,79;10554,08;22211840,00; 76126,29;24071,92;57994873,00; 41646,47;7844,39;26606868,00
136746,27;108696,72;119438254,00; 45214,56;50478,31;25111945,00; 86406,41;44534,03;66755515,00; 49848,72;25276,62;27681877,00
110756,23;194652,27;92466516,00; 35780,38;32068,47;20657651,00; 70607,11;151377,03;58848549,00; 31368,32;56061,95;13261130,00
52665,97;48169,01;90753667,00; 34247,15;18352,79;14367176,00; 42266,88;48350,45;59319273,00; 16022,60;9245,82;17071699,00
48273,91;47213,35;91555804,00; 22526,19;29573,92;13234326,00; 30764,09;27402,29;55687065,00; 13225,23;7350,47;22864611,00
77421,41;66886,44;113068143,00; 24065,55;31153,48;25809843,00; 59050,42;46652,48;65010466,00; 14596,83;9995,22;22179139,00
213596,27;70903,50;77790708,00; 132444,24;45863,12;7911646,00; 85544,86;39379,70;50331974,00; 9879,65;9911,57;19565842,00
219913,36;13085,01;110488111,00; 139793,47;62506,91;26561564,00; 89085,81;27557,15;60476024,00; 13900,56;25032,80;23804210,00
126822,49;56183,40;100795707,00; 53743,41;21392,14;24392731,00; 86480,72;36312,39;58984836,00; 22654,38;9512,46;17522952,00
287116,23;262488,82;74610337,00; 102092,77;53976,36;12053915,00; 164353,83;142008,67;42330264,00; 59901,14;79548,30;20346549,00
308965,77;298215,75;131113667,00; 146650,92;62743,38;29268934,00; 154085,42;168938,94;77704104,00; 58948,54;77583,64;24735935,00
92411,82;62275,82;101565630,00; 43205,47;11488,01;22033521,00; 58271,18;37342,30;60256323,00; 28959,63;30919,13;19531086,00
84855,53;124610,81;118684793,00; 30864,04;22564,42;29084368,00; 46042,47;93874,41;74112721,00; 34114,63;7910,02;15886630,00
113670,66;77094,93;106093268,00; 44316,24;36427,70;24933843,00; 72549,57;56345,22;58388885,00; 23470,66;57337,16;22651160,00
15891,05;11931,54;100766536,00; 8526,74;4281,22;19128190,00; 7270,49;10044,55;58091547,00; 8799,95;6722,76;24148826,00
122178,35;90447,64;142924710,00; 42718,43;17937,23;33584158,00; 71806,51;63298,79;80212834,00; 29679,39;18018,18;29483445,00
66294,39;85833,53;111593800,00; 32060,87;15183,29;27523427,00; 38662,26;76719,29;58252701,00; 16193,05;10601,17;26122565,00
60407,81;90494,97;81559123,00; 17810,16;37699,42;19713390,00; 44652,30;61215,17;48030565,00; 24176,65;13914,09;13977420,00
125048,43;173996,09;146834380,00; 62607,94;10433,09;39752568,00; 93189,72;171967,04;77396695,00; 19734,81;10547,17;30160268,00
260379,84;252654,65;135272599,00; 134012,72;42823,96;26498882,00; 144180,32;135709,39;81130169,00; 65218,31;91920,66;28116825,00
827457,08;80236,24;168414688,00; 208807,81;10547,25;34517715,00; 477183,00;46894,92;98755201,00; 175386,80;43160,02;35482369,00
0,00;0,00;0,00; 0,00;0,00;0,00; 0,00;0,00;0,00; 0,00;0,00;0,00